<?xml version="1.0" standalone="no"?>
<!DOCTYPE svg PUBLIC "-//W3C//DTD SVG 20010904//EN"
 "http://www.w3.org/TR/2001/REC-SVG-20010904/DTD/svg10.dtd">
<svg version="1.0" xmlns="http://www.w3.org/2000/svg"
 width="128.000000pt" height="128.000000pt" viewBox="0 0 128.000000 128.000000"
 preserveAspectRatio="xMidYMid meet">
<metadata>
Created by potrace 1.11, written by Peter Selinger 2001-2013
</metadata>
<g transform="translate(0.000000,128.000000) scale(0.100000,-0.100000)"
fill="#000000" stroke="none">
<path d="M163 1063 c-52 -10 -53 -18 -53 -424 0 -356 1 -378 19 -400 l19 -24
485 0 485 0 26 24 26 24 0 378 c0 356 -1 378 -19 400 l-19 24 -474 1 c-260 1
-483 0 -495 -3z m905 -89 c22 -15 22 -18 22 -261 0 -215 -2 -249 -17 -265 -15
-17 -42 -18 -431 -18 -373 0 -417 2 -434 17 -16 15 -18 37 -18 264 0 245 0
248 22 263 34 24 822 24 856 0z"/>
<path d="M374 770 c-50 -16 -79 -55 -79 -107 0 -38 5 -49 33 -74 l32 -29 280
0 280 0 32 29 c28 25 33 36 33 75 0 38 -5 51 -33 78 l-32 33 -258 2 c-141 1
-271 -2 -288 -7z m86 -57 c39 -50 3 -123 -60 -123 -63 0 -99 73 -60 123 17 21
30 27 60 27 30 0 43 -6 60 -27z m480 0 c39 -50 3 -123 -60 -123 -63 0 -99 73
-60 123 17 21 30 27 60 27 30 0 43 -6 60 -27z m-170 -48 l0 -55 -79 0 -79 0
-4 55 -3 55 83 0 82 0 0 -55z"/>
</g>
</svg>
